{
  "project_info": {
    "project_number": "1067519794829",
    "firebase_url": "https://helpwatch-prod.firebaseio.com",
    "project_id": "helpwatch-prod",
    "storage_bucket": "helpwatch-prod.appspot.com"
  },
  "client": [
    {
      "client_info": {
        "mobilesdk_app_id": "1:1067519794829:android:3a44fcd36642b47f",
        "android_client_info": {
          "package_name": "com.watch.help.watchface"
        }
      },
      "oauth_client": [
        {
          "client_id": "1067519794829-i2b7n9ctlgel6p45hch1houdt208t8sf.apps.googleusercontent.com",
          "client_type": 1,
          "android_info": {
            "package_name": "com.watch.help.watchface",
            "certificate_hash": "3d80f13949a85bf92fefbb55d38291cbff99c817"
          }
        },
        {
          "client_id": "1067519794829-dk8s457gfc1bu9t2c8arktk3vj03hmur.apps.googleusercontent.com",
          "client_type": 3
        }
      ],
      "api_key": [
        {
          "current_key": "AIzaSyCXpR7LAj_5rzx1zzAWXP62e9AsrXhfgLw"
        }
      ],
      "services": {
        "analytics_service": {
          "status": 1
        },
        "appinvite_service": {
          "status": 2,
          "other_platform_oauth_client": [
            {
              "client_id": "1067519794829-dk8s457gfc1bu9t2c8arktk3vj03hmur.apps.googleusercontent.com",
              "client_type": 3
            }
          ]
        },
        "ads_service": {
          "status": 2
        }
      }
    }
  ],
  "configuration_version": "1"
}